486534 566091 470
419503 779852 509
118538 345828 443
595720 482581 470
28975 243645 443
610773 85318 470
181302 788576 509
260680 643382 509
837656 42996 509
445734 938230 525
403582 590352 470
260669 701198 509
222608 566975 470
497433 48329 449
800009 300354 509
730264 136439 509
749594 436093 509
767176 783985 468
593954 897020 525
143762 453445 449
703688 150850 509
949085 630395 525
155655 731405 509
106903 555181 470
174688 419264 449
26225 627144 509
646667 317486 509
648362 433008 509
804366 42360 509
39427 493637 449
236836 110092 443
38821 737674 509
778879 600753 509
583883 989711 525
786411 41754 509
903690 418358 525
364866 603660 470
932849 242181 525
979714 24330 525
837436 332272 509
69649 581612 470
129224 972250 525
274944 551414 470
300179 274037 389
967556 14911 525
703891 178870 509
619852 305431 470
853818 402566 525
543922 302535 470
296031 135544 443
667284 736941 504
687558 111060 509
641383 626108 509
925708 867189 476
706817 224342 509
464753 207845 449
802403 723825 468
798041 323906 509
566671 708428 509
50309 667146 509
487275 708278 509
91532 58835 351
794416 841946 525
392992 410387 449
876686 156729 525
620409 892278 525
19863 550911 470
815969 373614 509
232589 736987 509
25709 280109 443
125471 871636 525
992589 461615 525
698545 104665 509
838498 994486 507
866405 944557 507
864630 866571 388
688323 895005 525
719110 262477 509
648060 354813 509
925634 205430 525
817995 615572 509
185058 442915 449
204158 765634 509
311942 387795 441
705936 454744 509
392330 712932 509
593478 227639 470
346580 422404 449
465874 133714 449
803290 780596 468
208025 543813 470
269636 55144 443
933126 513047 525
315062 725259 509
163423 60218 383
754443 588658 509
619100 293839 470
816511 58649 509
8550 174355 383
809245 514674 509
91825 105028 341
462296 844914 525
141776 746800 509
653184 5579 509
163011 45422 383
506442 241928 449
498670 989019 525
676958 962675 525
879707 397774 525
825332 189926 509
816572 777575 468
387992 188392 443
205663 863592 525
781672 351565 509
834768 259513 509
827529 691351 504
709900 798808 468
921962 506370 525
322992 216442 443
838380 818950 525
967288 950571 414
311803 346315 441
215919 121849 383
399928 412427 449
444068 112523 449
11904 684828 509
282389 589855 470
166337 670083 509
864869 123363 525
301689 291782 371
529748 818475 509
184095 768010 509
637917 592170 509
235568 436393 449
116544 316421 443
932498 727423 525
859894 165425 525
895727 404356 525
627771 671805 442
637450 29345 509
853362 777288 525
592667 371342 470
913911 512869 525
956647 252451 525
386740 755859 509
567756 689281 509
652983 212354 509
356964 381579 423
704820 716695 411
896824 324669 525
649143 879436 525
719612 680101 504
324345 683823 509
646661 500793 509
815809 195644 509
173128 505052 449
715154 721399 411
132233 447749 449
303633 223937 443
123484 85881 354
341268 417323 449
8601 300244 443
229837 56350 386
195654 414675 449
832587 312945 509
14909 936992 525
419497 546722 470
853307 231998 525
84550 886089 525
759045 565331 509
125164 72042 354
422835 506890 444
836607 728492 468
987387 169175 525
567806 698561 509
911951 461334 525
383870 411440 449
940977 74903 525
939614 370689 525
334454 805594 509
700769 319230 509
326403 539354 470
918613 921556 432
254295 985398 525
254980 794087 509
174622 960205 525
337981 75201 443
653350 959814 525
19237 988000 525
218665 810196 509
945405 760901 525
223910 879971 525
632767 252807 509
82684 982175 525
663708 800358 504
450967 704252 509
122514 636712 509
268509 952422 525
479993 49420 449
740660 37007 509
987118 489778 525
556946 994035 525
606591 239814 470
305758 551228 470
124598 452211 449
134385 694137 509
733501 832361 468
176785 41571 383
474413 536688 470
357030 211991 443
388344 543213 470
200557 348853 443
581962 843226 525
759407 9108 509
706471 937059 525
761443 767410 375
703267 429194 509
285319 47534 443
127417 779164 509
412038 895854 525
725859 779427 468
902039 545167 525
275665 749544 509
610255 53169 470
654321 158996 509
252769 274912 407
127746 756564 509
91992 906698 525
374885 40853 443
820676 265025 509
562748 144529 470
996458 279760 525
270048 756338 509
757426 350853 509
112448 366372 443
934367 207020 525
363024 962792 525
381049 650364 509
192787 808986 509
545927 581668 452
753474 551616 509
652232 87586 509
522153 636405 509
552115 444121 470
531911 582339 452
676721 962355 525
994478 644225 525
961631 335976 525
974767 670530 525
966994 532060 525
93379 84830 333
371160 339201 441
351877 120725 443
550880 865974 525
508256 643258 509
461938 89949 449
517056 172103 470
151047 707444 509
647298 7240 509
325005 773995 509
396876 736212 509
403211 431036 449
736924 215898 509
462227 55540 449
595765 309634 470
625131 210493 470
632088 106796 509
423195 43738 449
388259 430494 449
649186 434023 509
941157 373753 525
198075 600704 470
293296 923229 525
110248 832088 509
145727 319184 443
897271 90369 525
179565 517325 470
141262 691199 509
849373 855468 419
366387 192132 443
856847 212069 525
747458 952908 525
783699 312476 509
75301 715785 509
589368 509926 470
181440 591158 470
176602 615398 470
961935 978029 458
514274 819369 509
366528 274606 441
178600 466964 449
704478 852164 525
876688 725838 525
350953 73780 443
146063 149146 357
149269 414582 449
478283 344652 449
113812 342544 443
594138 541573 452
