967 110 179
485 56 144
301 111 128
435 439 116
516 169 144
375 865 171
594 967 179
100 552 144
606 443 142
707 936 179
965 384 179
697 44 145
659 952 179
390 178 144
756 707 140
226 681 145
819 232 171
302 816 171
559 602 119
225 153 125
707 806 153
290 144 128
355 815 171
719 574 171
272 646 144
707 220 171
626 509 137
660 189 145
401 846 171
59 708 171
835 378 171
85 469 144
343 828 171
550 387 142
653 132 145
818 493 171
138 150 117
292 883 179
180 88 125
174 900 179
776 890 179
439 502 142
49 179 125
943 503 179
568 369 142
361 699 145
824 559 171
703 455 171
661 388 145
353 58 144
969 681 179
354 586 142
205 360 144
101 657 145
630 814 171
155 363 144
272 940 179
522 586 137
546 474 142
747 772 153
737 401 171
265 309 123
435 876 179
825 554 171
999 915 174
977 676 179
28 510 144
380 134 144
573 70 144
450 814 171
701 556 145
890 790 179
354 258 144
859 333 171
682 341 145
824 420 171
667 172 145
994 847 179
817 673 171
503 685 145
233 473 144
236 21 128
131 230 125
7 788 171
486 761 171
794 374 171
807 442 171
337 486 134
933 978 174
738 464 171
466 723 171
775 626 171
137 986 179
567 215 144
334 761 171
395 246 144
704 204 171
346 50 144
77 173 125
74 66 116
590 738 171
450 124 144
444 899 179
615 66 144
865 732 153
319 576 144
572 715 171
135 262 128
59 995 179
369 705 171
979 225 179
726 663 171
662 888 179
989 140 179
819 689 171
342 421 134
72 901 179
599 737 171
770 744 153
53 63 113
833 354 171
150 833 171
632 47 144
198 663 145
998 742 179
130 684 145
463 891 179
892 722 179
132 141 91
76 46 116
545 385 142
426 606 142
448 758 171
301 65 128
968 823 179
60 444 144
785 522 171
514 660 145
75 907 179
366 292 144
176 761 171
865 937 179
792 941 179
486 691 145
251 683 145
539 383 142
158 33 122
878 157 179
411 583 142
506 382 142
762 91 171
151 105 122
589 696 145
134 142 104
68 156 122
55 544 144
275 1 128
951 437 179
820 769 153
192 95 125
918 196 179
107 59 119
438 98 144
521 364 142
560 12 144
584 110 144
555 490 142
732 25 171
663 658 114
333 976 179
956 997 143
909 922 130
329 450 134
584 431 142
527 907 179
644 473 142
668 212 145
891 574 179
878 164 179
225 67 125
718 82 171
760 95 171
462 405 134
888 191 179
848 427 171
405 899 179
166 320 131
478 29 144
319 39 131
957 113 179
44 16 112
569 31 144
980 36 179
515 197 144
209 738 171
442 913 179
812 887 179
898 872 148
210 927 179
786 949 179
362812 635052 509
438450 52699 449
680101 859461 525
15972 258263 443
945660 478398 525
43659 311318 443
657099 594088 509
935908 221457 525
923063 201959 525
165349 475342 449
794950 74214 509
950209 195261 525
752107 47554 509
173235 175871 347
603698 290821 470
384591 204645 443
510525 918862 525
520681 986287 525
642835 474273 509
722861 486478 509
196517 346318 443
28027 942677 525
749359 704392 504
550020 134616 470
19605 851022 525
750236 152925 509
139383 370957 443
683351 746302 504
922406 157784 525
983099 230395 525
418811 991613 525
673594 132632 509
937688 191471 525
407299 628383 509
873821 705544 525
584770 474664 470
698614 789635 504
211661 699823 509
617004 702771 509
643266 606321 509
62221 1296 340
130368 821131 509
872885 412942 525
300367 592051 470
793797 72048 509
720293 42971 509
653441 417757 509
426736 632089 509
611098 704473 509
560355 26347 470
93652 76125 351
144316 189806 383
251555 955142 525
811413 960010 525
636956 73023 509
410964 126191 449
422385 306598 449
141960 280523 443
763908 88779 509
618374 940134 525
725140 135915 509
600485 429060 470
487120 542448 470
723307 714212 411
112900 335693 443
585520 649084 509
629625 60813 509
101109 528983 470
540016 347864 470
994741 296072 525
253650 249556 332
233976 557967 470
411574 385099 449
299155 794993 509
808309 648311 504
865256 336593 525
207968 994963 525
476527 630683 509
881476 749793 525
12749 451268 449
556085 597403 434
594863 359158 470
972771 248565 525
651470 176342 509
682094 59327 509
384591 796719 509
417513 289897 449
465653 691210 509
777377 498210 509
834218 824938 419
1951 573007 470
58843 580380 470
670241 110088 509
400960 656395 509
7128 774729 509
832755 446785 509
928077 536044 525
236745 340024 407
125677 892334 525
761308 976649 525
