63 1470
7623 3812
4892 3002
6534 632
1751 3910
5169 238
1897 1544
8430 4717
1964 1481
8338 4290
541 4027
6182 4914
8643 1193
6597 200
2746 1264
6156 1884
1000 4848
8564 2819
3696 2982
9676 1381
4165 3674
6062 1775
1718 319
2468 3485
9048 4076
4164 3012
8977 823
8199 1841
6896 329
1015 1530
987 3562
9494 3327
8496 1497
4172 3267
5645 2327
2504 3117
1467 3465
2247 2238
516 1089
3251 2326
6949 816
3122 3472
9887 954
4416 270
5848 1205
2967 3274
3534 3807
8298 3091
9340 2012
7041 4544
3925 2321
8303 1772
3663 4030
6630 3032
3997 4899
4760 4527
561 3754
5274 1535
7349 1900
9213 323
5448 4367
7992 1501
3852 3422
5550 1789
7657 3878
4204 1040
3204 2542
4974 4762
8315 412
7841 2721
3607 568
6963 464
8964 2824
2663 1564
3212 968
532 4239
447 4483
2877 3654
9647 2914
5003 785
9832 4168
8183 1567
8205 816
3652 4732
9805 4555
7912 4488
4373 1730
1515 1428
5823 2324
2329 795
535 4276
6402 3339
5694 2531
4560 2576
8968 429
8776 2771
8096 682
905 708
2684 884
5970 9
7947 1504
3040 1145
6778 4699
7317 1273
598 1394
964 4218
5931 3422
2921 4254
6219 4490
5030 2877
8587 4290
1623 1576
1703 3162
5287 2849
5974 3424
8316 2805
9416 1063
973 2135
1196 4505
7747 2515
6621 512
7933 2995
5852 4961
7054 1489
8874 1613
2418 3050
1340 1301
4718 595
2465 4898
7444 4731
6655 759
1254 2341
9721 2235
162 4592
3965 1350
6299 836
3977 104
4312 4932
4542 3712
7558 1890
4237 2568
6937 2211
2926 2531
3407 2809
3664 2351
2069 1719
2730 357
4836 748
2384 3465
2531 215
6850 168
1792 2491
2606 894
56 1535
2581 2250
1763 4141
5146 3646
398 1820
295 2022
1696 4069
6458 2556
494 2807
9533 3534
6906 2103
1331 501
5205 999
9806 898
6757 1697
5694 2263
3826 953
1620 2040
7339 4325
4484 3732
326 3513
4377 3628
8100 131
5586 1478
562 4304
9322 2670
2828 1257
485 3170
2332 2269
5367 3617
1632 1348
1279 2743
6474 3326
7824 367
3552 998
5952 3814
1172 4206
1577 3599
5518 608
684 3113
3653 3190
8742 2409
4686 1206
8331 1541
6811 374
9167 4927
2208 4660
5367 4757
1043 1082