318 127 131
136 409 144
22 258 128
312 108 128
364 179 144
95 478 144
252 115 128
68 445 144
239 402 144
92 397 144
45 149 122
127 418 144
338 108 144
350 415 134
318 120 131
206 95 125
201 82 125
216 499 144
45 195 125
452 396 134
65 456 144
408 140 144
190 17 125
63 225 125
135 111 122
143 363 144
44 316 131
137 163 117
336 249 144
350 339 126
420 81 144
239 156 128
141 268 128
275 287 105
454 340 134
235 162 128
455 307 144
349 23 144
242 349 144
460 421 129
320 290 131
358 94 144
338 182 144
445 213 144
406 48 144
50 185 125
78 38 116
413 444 134
150 305 128
12 430 144
403 61 144
353 68 144
205 368 144
155 470 144
107 310 128
376 314 144
385 220 144
209 385 144
442 455 116
338 399 126
157 172 125
255 22 128
379 13 144
281 163 128
310 325 131
275 161 128
500 125 144
374 189 144
437 32 144
489 132 144
86 38 116
400 359 121
468 123 144
19 325 131
43 444 144
391 475 134
387 143 144
232 411 144
164 399 144
246 140 128
43 234 128
295 151 128
410 366 121
467 483 129
432 156 144
167 356 144
279 230 128
226 336 144
181 296 128
324 353 144
346 421 134
228 24 125
18 190 125
7 62 113
189 355 144
201 339 144
335 273 144
108 248 128
130 175 125
318 255 131
335 55 144
229 489 144
408 309 144
119 172 125
482 172 144
458 386 134
300 234 128
436 474 129
318 408 144
60 115 119
188 134 125
27 384 144
218 312 128
499 383 142
421 276 144
203 16 125
493 254 144
185 2 125
406 485 134
194 228 120
419 196 144
120 203 125
147 409 144
389 308 144
107 386 144
299 249 123
296 429 144
48 307 128
457 209 144
281 231 128
463 441 129
50 7 112
210 255 128
49 350 144
221 143 125
157 134 117
468 484 129
55 184 125
299 24 128
172 365 144
331 378 126
148 289 128
330 236 144
107 211 125
32 173 125
108 159 122
431 140 144
30 485 144
149 315 131
422 189 144
428 357 134
7 48 112
251 107 128
360 45 144
379 345 126
1 137 122
438 296 144
8 480 144
47 324 131
443 172 144
12 491 144
435 103 144
287 202 128
432 458 129
157 99 122
485 323 144
155 491 144
368 8 144
361 325 144
154 478 144
145 63 122
266 500 144
476 399 134
413 114 144
254 490 144
134 51 122
170 208 125
86 91 93
101 63 119
156 354 144
159 263 128
195 120 125
121 151 122
9 414 144
500 139 144
299 60 128
383 58 144
238 321 131
343 203 144
440 68 144
369 296 144
402 50 144
479 138 144
298 156 128
23 344 144
211 389 144
198 421 144
29 294 128
126 260 128
454 59 144
185 428 144
297 99 128
201 181 120
108 233 128
380 105 144
368 35 144
27 81 116
350 9 144
495 152 144
229 413 144
276 76 128
219 365 144
80 50 116
461 302 144
342 283 144
497 135 144
337 218 144
238 407 144
270 78 128
345 415 134
443 374 134
174 400 144
235 119 128
308 94 128
383 213 144
24 340 144
153 456 144
280 7 128
348 307 144
73 258 128
26 229 125
210 437 144
35 89 116
119 470 144
43 307 128
318 457 144
262 333 144
470 443 129
424 425 59
462 384 134
315 112 131
80 63 116
67 300 128
379 101 144
479 475 54
226 237 128
48 43 105
1 1 1
411 154 144
130 390 144
